week1/day3/comparator.vcd
$date
	Sat Jun 20 19:59:51 2026
$end
$version
	Icarus Verilog
$end
$timescale
	1ps
$end
$scope module tb_comparator $end
$var wire 1 ! LT_s $end
$var wire 1 " LT_b $end
$var wire 1 # GT_s $end
$var wire 1 $ GT_b $end
$var wire 1 % EQ_s $end
$var wire 1 & EQ_b $end
$var reg 4 ' A [3:0] $end
$var reg 4 ( B [3:0] $end
$var integer 32 ) errors [31:0] $end
$var integer 32 * i [31:0] $end
$var integer 32 + j [31:0] $end
$scope module u_behav $end
$var wire 4 , A [3:0] $end
$var wire 4 - B [3:0] $end
$var wire 1 " LT $end
$var wire 1 $ GT $end
$var wire 1 & EQ $end
$upscope $end
$scope module u_struct $end
$var wire 4 . A [3:0] $end
$var wire 4 / B [3:0] $end
$var wire 1 % EQ $end
$var wire 1 # GT $end
$var wire 1 ! LT $end
$var wire 1 0 eq0 $end
$var wire 1 1 eq1 $end
$var wire 1 2 eq2 $end
$var wire 1 3 eq3 $end
$var wire 1 4 gt0 $end
$var wire 1 5 gt1 $end
$var wire 1 6 gt2 $end
$var wire 1 7 gt3 $end
$var wire 1 8 lt0 $end
$var wire 1 9 lt1 $end
$var wire 1 : lt2 $end
$var wire 1 ; lt3 $end
$upscope $end
$upscope $end
$enddefinitions $end
$comment Show the parameter values. $end
$dumpall
$end
#0
$dumpvars
0;
0:
09
08
07
06
05
04
13
12
11
10
b0 /
b0 .
b0 -
b0 ,
b0 +
b0 *
b0 )
b0 (
b0 '
1&
1%
0$
0#
0"
0!
$end
#5000
0%
0!
00
18
0&
1"
b1 (
b1 -
b1 /
b1 +
#10000
1!
0%
01
10
19
08
b10 (
b10 -
b10 /
b10 +
b10 )
#15000
00
18
b11 (
b11 -
b11 /
b11 +
#20000
0%
1!
02
11
10
1:
09
08
b100 (
b100 -
b100 /
b100 +
#25000
00
18
b101 (
b101 -
b101 /
b101 +
#30000
01
10
19
08
b110 (
b110 -
b110 /
b110 +
#35000
00
18
b111 (
b111 -
b111 /
b111 +
#40000
03
12
11
10
1;
0:
09
08
b1000 (
b1000 -
b1000 /
b1000 +
#45000
00
18
b1001 (
b1001 -
b1001 /
b1001 +
#50000
01
10
19
08
b1010 (
b1010 -
b1010 /
b1010 +
#55000
00
18
b1011 (
b1011 -
b1011 /
b1011 +
#60000
02
11
10
1:
09
08
b1100 (
b1100 -
b1100 /
b1100 +
#65000
00
18
b1101 (
b1101 -
b1101 /
b1101 +
#70000
01
10
19
08
b1110 (
b1110 -
b1110 /
b1110 +
#75000
00
18
b1111 (
b1111 -
b1111 /
b1111 +
#80000
0!
13
12
11
14
0;
0:
09
08
1$
0"
b0 (
b0 -
b0 /
b1 '
b1 ,
b1 .
b1 *
b0 +
#85000
1%
10
04
0$
1&
b1 (
b1 -
b1 /
b1 +
b100 )
#90000
0#
1!
0%
01
00
14
19
0&
1"
b10 (
b10 -
b10 /
b10 +
#95000
10
04
b11 (
b11 -
b11 /
b11 +
#100000
0#
1!
02
11
00
14
1:
09
b100 (
b100 -
b100 /
b100 +
#105000
10
04
b101 (
b101 -
b101 /
b101 +
#110000
01
00
14
19
b110 (
b110 -
b110 /
b110 +
#115000
10
04
b111 (
b111 -
b111 /
b111 +
#120000
03
12
11
00
14
1;
0:
09
b1000 (
b1000 -
b1000 /
b1000 +
#125000
10
04
b1001 (
b1001 -
b1001 /
b1001 +
#130000
01
00
14
19
b1010 (
b1010 -
b1010 /
b1010 +
#135000
10
04
b1011 (
b1011 -
b1011 /
b1011 +
#140000
02
11
00
14
1:
09
b1100 (
b1100 -
b1100 /
b1100 +
#145000
10
04
b1101 (
b1101 -
b1101 /
b1101 +
#150000
01
00
14
19
b1110 (
b1110 -
b1110 /
b1110 +
#155000
10
04
b1111 (
b1111 -
b1111 /
b1111 +
#160000
1#
0!
13
12
15
0;
0:
09
1$
0"
b0 (
b0 -
b0 /
b10 '
b10 ,
b10 .
b10 *
b0 +
#165000
0!
00
18
b1 (
b1 -
b1 /
b1 +
#170000
0#
1%
11
10
05
08
0$
1&
b10 (
b10 -
b10 /
b10 +
#175000
0%
0!
00
18
0&
1"
b11 (
b11 -
b11 /
b11 +
#180000
0#
1!
0%
02
01
10
15
1:
08
b100 (
b100 -
b100 /
b100 +
b110 )
#185000
00
18
b101 (
b101 -
b101 /
b101 +
#190000
11
10
05
08
b110 (
b110 -
b110 /
b110 +
#195000
00
18
b111 (
b111 -
b111 /
b111 +
#200000
03
12
01
10
15
1;
0:
08
b1000 (
b1000 -
b1000 /
b1000 +
#205000
00
18
b1001 (
b1001 -
b1001 /
b1001 +
#210000
11
10
05
08
b1010 (
b1010 -
b1010 /
b1010 +
#215000
00
18
b1011 (
b1011 -
b1011 /
b1011 +
#220000
02
01
10
15
1:
08
b1100 (
b1100 -
b1100 /
b1100 +
#225000
00
18
b1101 (
b1101 -
b1101 /
b1101 +
#230000
11
10
05
08
b1110 (
b1110 -
b1110 /
b1110 +
#235000
00
18
b1111 (
b1111 -
b1111 /
b1111 +
#240000
1#
0!
13
12
01
15
14
0;
0:
08
1$
0"
b0 (
b0 -
b0 /
b11 '
b11 ,
b11 .
b11 *
b0 +
#245000
10
04
b1 (
b1 -
b1 /
b1 +
#250000
0#
11
00
05
14
b10 (
b10 -
b10 /
b10 +
#255000
1%
10
04
0$
1&
b11 (
b11 -
b11 /
b11 +
b1000 )
#260000
1!
0#
0%
02
01
00
15
14
1:
0&
1"
b100 (
b100 -
b100 /
b100 +
#265000
10
04
b101 (
b101 -
b101 /
b101 +
#270000
11
00
05
14
b110 (
b110 -
b110 /
b110 +
#275000
10
04
b111 (
b111 -
b111 /
b111 +
#280000
03
12
01
00
15
14
1;
0:
b1000 (
b1000 -
b1000 /
b1000 +
#285000
10
04
b1001 (
b1001 -
b1001 /
b1001 +
#290000
11
00
05
14
b1010 (
b1010 -
b1010 /
b1010 +
#295000
10
04
b1011 (
b1011 -
b1011 /
b1011 +
#300000
02
01
00
15
14
1:
b1100 (
b1100 -
b1100 /
b1100 +
#305000
10
04
b1101 (
b1101 -
b1101 /
b1101 +
#310000
11
00
05
14
b1110 (
b1110 -
b1110 /
b1110 +
#315000
10
04
b1111 (
b1111 -
b1111 /
b1111 +
#320000
1#
0!
13
16
0;
0:
1$
0"
b0 (
b0 -
b0 /
b100 '
b100 ,
b100 .
b100 *
b0 +
#325000
00
18
b1 (
b1 -
b1 /
b1 +
#330000
01
10
19
08
b10 (
b10 -
b10 /
b10 +
#335000
00
18
b11 (
b11 -
b11 /
b11 +
#340000
0#
1%
12
11
10
06
09
08
0$
1&
b100 (
b100 -
b100 /
b100 +
#345000
0%
0!
00
18
0&
1"
b101 (
b101 -
b101 /
b101 +
#350000
1!
0%
01
10
19
08
b110 (
b110 -
b110 /
b110 +
b1010 )
#355000
00
18
b111 (
b111 -
b111 /
b111 +
#360000
0%
03
02
11
10
16
1;
09
08
b1000 (
b1000 -
b1000 /
b1000 +
#365000
00
18
b1001 (
b1001 -
b1001 /
b1001 +
#370000
01
10
19
08
b1010 (
b1010 -
b1010 /
b1010 +
#375000
00
18
b1011 (
b1011 -
b1011 /
b1011 +
#380000
12
11
10
06
09
08
b1100 (
b1100 -
b1100 /
b1100 +
#385000
00
18
b1101 (
b1101 -
b1101 /
b1101 +
#390000
01
10
19
08
b1110 (
b1110 -
b1110 /
b1110 +
#395000
00
18
b1111 (
b1111 -
b1111 /
b1111 +
#400000
1#
0!
13
02
11
16
14
0;
09
08
1$
0"
b0 (
b0 -
b0 /
b101 '
b101 ,
b101 .
b101 *
b0 +
#405000
10
04
b1 (
b1 -
b1 /
b1 +
#410000
01
00
14
19
b10 (
b10 -
b10 /
b10 +
#415000
10
04
b11 (
b11 -
b11 /
b11 +
#420000
0#
12
11
00
06
14
09
b100 (
b100 -
b100 /
b100 +
#425000
1%
10
04
0$
1&
b101 (
b101 -
b101 /
b101 +
b1100 )
#430000
0#
1!
0%
01
00
14
19
0&
1"
b110 (
b110 -
b110 /
b110 +
#435000
10
04
b111 (
b111 -
b111 /
b111 +
#440000
0#
03
02
11
00
16
14
1;
09
b1000 (
b1000 -
b1000 /
b1000 +
#445000
10
04
b1001 (
b1001 -
b1001 /
b1001 +
#450000
01
00
14
19
b1010 (
b1010 -
b1010 /
b1010 +
#455000
10
04
b1011 (
b1011 -
b1011 /
b1011 +
#460000
12
11
00
06
14
09
b1100 (
b1100 -
b1100 /
b1100 +
#465000
10
04
b1101 (
b1101 -
b1101 /
b1101 +
#470000
01
00
14
19
b1110 (
b1110 -
b1110 /
b1110 +
#475000
10
04
b1111 (
b1111 -
b1111 /
b1111 +
#480000
1#
0!
13
02
16
15
0;
09
1$
0"
b0 (
b0 -
b0 /
b110 '
b110 ,
b110 .
b110 *
b0 +
#485000
00
18
b1 (
b1 -
b1 /
b1 +
#490000
11
10
05
08
b10 (
b10 -
b10 /
b10 +
#495000
00
18
b11 (
b11 -
b11 /
b11 +
#500000
12
01
10
06
15
08
b100 (
b100 -
b100 /
b100 +
#505000
0!
00
18
b101 (
b101 -
b101 /
b101 +
#510000
0#
1%
11
10
05
08
0$
1&
b110 (
b110 -
b110 /
b110 +
#515000
0%
0!
00
18
0&
1"
b111 (
b111 -
b111 /
b111 +
#520000
0#
1!
0%
03
02
01
10
16
15
1;
08
b1000 (
b1000 -
b1000 /
b1000 +
b1110 )
#525000
00
18
b1001 (
b1001 -
b1001 /
b1001 +
#530000
11
10
05
08
b1010 (
b1010 -
b1010 /
b1010 +
#535000
00
18
b1011 (
b1011 -
b1011 /
b1011 +
#540000
12
01
10
06
15
08
b1100 (
b1100 -
b1100 /
b1100 +
#545000
00
18
b1101 (
b1101 -
b1101 /
b1101 +
#550000
11
10
05
08
b1110 (
b1110 -
b1110 /
b1110 +
#555000
00
18
b1111 (
b1111 -
b1111 /
b1111 +
#560000
1#
0!
13
02
01
16
15
14
0;
08
1$
0"
b0 (
b0 -
b0 /
b111 '
b111 ,
b111 .
b111 *
b0 +
#565000
10
04
b1 (
b1 -
b1 /
b1 +
#570000
11
00
05
14
b10 (
b10 -
b10 /
b10 +
#575000
10
04
b11 (
b11 -
b11 /
b11 +
#580000
12
01
00
06
15
14
b100 (
b100 -
b100 /
b100 +
#585000
10
04
b101 (
b101 -
b101 /
b101 +
#590000
0#
11
00
05
14
b110 (
b110 -
b110 /
b110 +
#595000
1%
10
04
0$
1&
b111 (
b111 -
b111 /
b111 +
b10000 )
#600000
0#
1!
0%
03
02
01
00
16
15
14
1;
0&
1"
b1000 (
b1000 -
b1000 /
b1000 +
#605000
10
04
b1001 (
b1001 -
b1001 /
b1001 +
#610000
11
00
05
14
b1010 (
b1010 -
b1010 /
b1010 +
#615000
10
04
b1011 (
b1011 -
b1011 /
b1011 +
#620000
12
01
00
06
15
14
b1100 (
b1100 -
b1100 /
b1100 +
#625000
10
04
b1101 (
b1101 -
b1101 /
b1101 +
#630000
11
00
05
14
b1110 (
b1110 -
b1110 /
b1110 +
#635000
10
04
b1111 (
b1111 -
b1111 /
b1111 +
#640000
1#
0!
17
0;
1$
0"
b0 (
b0 -
b0 /
b1000 '
b1000 ,
b1000 .
b1000 *
b0 +
#645000
00
18
b1 (
b1 -
b1 /
b1 +
#650000
01
10
19
08
b10 (
b10 -
b10 /
b10 +
#655000
00
18
b11 (
b11 -
b11 /
b11 +
#660000
02
11
10
1:
09
08
b100 (
b100 -
b100 /
b100 +
#665000
00
18
b101 (
b101 -
b101 /
b101 +
#670000
01
10
19
08
b110 (
b110 -
b110 /
b110 +
#675000
00
18
b111 (
b111 -
b111 /
b111 +
#680000
1%
0#
13
12
11
10
07
0:
09
08
0$
1&
b1000 (
b1000 -
b1000 /
b1000 +
#685000
0%
0!
00
18
0&
1"
b1001 (
b1001 -
b1001 /
b1001 +
#690000
1!
0%
01
10
19
08
b1010 (
b1010 -
b1010 /
b1010 +
b10010 )
#695000
00
18
b1011 (
b1011 -
b1011 /
b1011 +
#700000
0%
1!
02
11
10
1:
09
08
b1100 (
b1100 -
b1100 /
b1100 +
#705000
00
18
b1101 (
b1101 -
b1101 /
b1101 +
#710000
01
10
19
08
b1110 (
b1110 -
b1110 /
b1110 +
#715000
00
18
b1111 (
b1111 -
b1111 /
b1111 +
#720000
1#
0!
03
12
11
17
14
0:
09
08
1$
0"
b0 (
b0 -
b0 /
b1001 '
b1001 ,
b1001 .
b1001 *
b0 +
#725000
10
04
b1 (
b1 -
b1 /
b1 +
#730000
01
00
14
19
b10 (
b10 -
b10 /
b10 +
#735000
10
04
b11 (
b11 -
b11 /
b11 +
#740000
02
11
00
14
1:
09
b100 (
b100 -
b100 /
b100 +
#745000
10
04
b101 (
b101 -
b101 /
b101 +
#750000
01
00
14
19
b110 (
b110 -
b110 /
b110 +
#755000
10
04
b111 (
b111 -
b111 /
b111 +
#760000
0#
13
12
11
00
07
14
0:
09
b1000 (
b1000 -
b1000 /
b1000 +
#765000
1%
10
04
0$
1&
b1001 (
b1001 -
b1001 /
b1001 +
b10100 )
#770000
0#
1!
0%
01
00
14
19
0&
1"
b1010 (
b1010 -
b1010 /
b1010 +
#775000
10
04
b1011 (
b1011 -
b1011 /
b1011 +
#780000
0#
1!
02
11
00
14
1:
09
b1100 (
b1100 -
b1100 /
b1100 +
#785000
10
04
b1101 (
b1101 -
b1101 /
b1101 +
#790000
01
00
14
19
b1110 (
b1110 -
b1110 /
b1110 +
#795000
10
04
b1111 (
b1111 -
b1111 /
b1111 +
#800000
1#
0!
03
12
17
15
0:
09
1$
0"
b0 (
b0 -
b0 /
b1010 '
b1010 ,
b1010 .
b1010 *
b0 +
#805000
00
18
b1 (
b1 -
b1 /
b1 +
#810000
11
10
05
08
b10 (
b10 -
b10 /
b10 +
#815000
00
18
b11 (
b11 -
b11 /
b11 +
#820000
02
01
10
15
1:
08
b100 (
b100 -
b100 /
b100 +
#825000
00
18
b101 (
b101 -
b101 /
b101 +
#830000
11
10
05
08
b110 (
b110 -
b110 /
b110 +
#835000
00
18
b111 (
b111 -
b111 /
b111 +
#840000
1#
13
12
01
10
07
15
0:
08
b1000 (
b1000 -
b1000 /
b1000 +
#845000
0!
00
18
b1001 (
b1001 -
b1001 /
b1001 +
#850000
0#
1%
11
10
05
08
0$
1&
b1010 (
b1010 -
b1010 /
b1010 +
#855000
0%
0!
00
18
0&
1"
b1011 (
b1011 -
b1011 /
b1011 +
#860000
0#
1!
0%
02
01
10
15
1:
08
b1100 (
b1100 -
b1100 /
b1100 +
b10110 )
#865000
00
18
b1101 (
b1101 -
b1101 /
b1101 +
#870000
11
10
05
08
b1110 (
b1110 -
b1110 /
b1110 +
#875000
00
18
b1111 (
b1111 -
b1111 /
b1111 +
#880000
1#
0!
03
12
01
17
15
14
0:
08
1$
0"
b0 (
b0 -
b0 /
b1011 '
b1011 ,
b1011 .
b1011 *
b0 +
#885000
10
04
b1 (
b1 -
b1 /
b1 +
#890000
11
00
05
14
b10 (
b10 -
b10 /
b10 +
#895000
10
04
b11 (
b11 -
b11 /
b11 +
#900000
02
01
00
15
14
1:
b100 (
b100 -
b100 /
b100 +
#905000
10
04
b101 (
b101 -
b101 /
b101 +
#910000
11
00
05
14
b110 (
b110 -
b110 /
b110 +
#915000
10
04
b111 (
b111 -
b111 /
b111 +
#920000
1#
13
12
01
00
07
15
14
0:
b1000 (
b1000 -
b1000 /
b1000 +
#925000
10
04
b1001 (
b1001 -
b1001 /
b1001 +
#930000
0#
11
00
05
14
b1010 (
b1010 -
b1010 /
b1010 +
#935000
1%
10
04
0$
1&
b1011 (
b1011 -
b1011 /
b1011 +
b11000 )
#940000
1!
0#
0%
02
01
00
15
14
1:
0&
1"
b1100 (
b1100 -
b1100 /
b1100 +
#945000
10
04
b1101 (
b1101 -
b1101 /
b1101 +
#950000
11
00
05
14
b1110 (
b1110 -
b1110 /
b1110 +
#955000
10
04
b1111 (
b1111 -
b1111 /
b1111 +
#960000
1#
0!
03
17
16
0:
1$
0"
b0 (
b0 -
b0 /
b1100 '
b1100 ,
b1100 .
b1100 *
b0 +
#965000
00
18
b1 (
b1 -
b1 /
b1 +
#970000
01
10
19
08
b10 (
b10 -
b10 /
b10 +
#975000
00
18
b11 (
b11 -
b11 /
b11 +
#980000
12
11
10
06
09
08
b100 (
b100 -
b100 /
b100 +
#985000
00
18
b101 (
b101 -
b101 /
b101 +
#990000
01
10
19
08
b110 (
b110 -
b110 /
b110 +
#995000
00
18
b111 (
b111 -
b111 /
b111 +
#1000000
13
02
11
10
07
16
09
08
b1000 (
b1000 -
b1000 /
b1000 +
#1005000
00
18
b1001 (
b1001 -
b1001 /
b1001 +
#1010000
01
10
19
08
b1010 (
b1010 -
b1010 /
b1010 +
#1015000
00
18
b1011 (
b1011 -
b1011 /
b1011 +
#1020000
0#
1%
12
11
10
06
09
08
0$
1&
b1100 (
b1100 -
b1100 /
b1100 +
#1025000
0%
0!
00
18
0&
1"
b1101 (
b1101 -
b1101 /
b1101 +
#1030000
1!
0%
01
10
19
08
b1110 (
b1110 -
b1110 /
b1110 +
b11010 )
#1035000
00
18
b1111 (
b1111 -
b1111 /
b1111 +
#1040000
1#
0!
03
02
11
17
16
14
09
08
1$
0"
b0 (
b0 -
b0 /
b1101 '
b1101 ,
b1101 .
b1101 *
b0 +
#1045000
10
04
b1 (
b1 -
b1 /
b1 +
#1050000
01
00
14
19
b10 (
b10 -
b10 /
b10 +
#1055000
10
04
b11 (
b11 -
b11 /
b11 +
#1060000
12
11
00
06
14
09
b100 (
b100 -
b100 /
b100 +
#1065000
10
04
b101 (
b101 -
b101 /
b101 +
#1070000
01
00
14
19
b110 (
b110 -
b110 /
b110 +
#1075000
10
04
b111 (
b111 -
b111 /
b111 +
#1080000
13
02
11
00
07
16
14
09
b1000 (
b1000 -
b1000 /
b1000 +
#1085000
10
04
b1001 (
b1001 -
b1001 /
b1001 +
#1090000
01
00
14
19
b1010 (
b1010 -
b1010 /
b1010 +
#1095000
10
04
b1011 (
b1011 -
b1011 /
b1011 +
#1100000
0#
12
11
00
06
14
09
b1100 (
b1100 -
b1100 /
b1100 +
#1105000
1%
10
04
0$
1&
b1101 (
b1101 -
b1101 /
b1101 +
b11100 )
#1110000
0#
1!
0%
01
00
14
19
0&
1"
b1110 (
b1110 -
b1110 /
b1110 +
#1115000
10
04
b1111 (
b1111 -
b1111 /
b1111 +
#1120000
1#
0!
03
02
17
16
15
09
1$
0"
b0 (
b0 -
b0 /
b1110 '
b1110 ,
b1110 .
b1110 *
b0 +
#1125000
00
18
b1 (
b1 -
b1 /
b1 +
#1130000
11
10
05
08
b10 (
b10 -
b10 /
b10 +
#1135000
00
18
b11 (
b11 -
b11 /
b11 +
#1140000
12
01
10
06
15
08
b100 (
b100 -
b100 /
b100 +
#1145000
00
18
b101 (
b101 -
b101 /
b101 +
#1150000
11
10
05
08
b110 (
b110 -
b110 /
b110 +
#1155000
00
18
b111 (
b111 -
b111 /
b111 +
#1160000
13
02
01
10
07
16
15
08
b1000 (
b1000 -
b1000 /
b1000 +
#1165000
00
18
b1001 (
b1001 -
b1001 /
b1001 +
#1170000
11
10
05
08
b1010 (
b1010 -
b1010 /
b1010 +
#1175000
00
18
b1011 (
b1011 -
b1011 /
b1011 +
#1180000
12
01
10
06
15
08
b1100 (
b1100 -
b1100 /
b1100 +
#1185000
0!
00
18
b1101 (
b1101 -
b1101 /
b1101 +
#1190000
0#
1%
11
10
05
08
0$
1&
b1110 (
b1110 -
b1110 /
b1110 +
#1195000
0%
0!
00
18
0&
1"
b1111 (
b1111 -
b1111 /
b1111 +
#1200000
1#
03
02
01
17
16
15
14
08
1$
b0 (
b0 -
b0 /
0&
0"
b1111 '
b1111 ,
b1111 .
b1111 *
b0 +
b11110 )
#1205000
10
04
b1 (
b1 -
b1 /
b1 +
#1210000
11
00
05
14
b10 (
b10 -
b10 /
b10 +
#1215000
10
04
b11 (
b11 -
b11 /
b11 +
#1220000
12
01
00
06
15
14
b100 (
b100 -
b100 /
b100 +
#1225000
10
04
b101 (
b101 -
b101 /
b101 +
#1230000
11
00
05
14
b110 (
b110 -
b110 /
b110 +
#1235000
10
04
b111 (
b111 -
b111 /
b111 +
#1240000
13
02
01
00
07
16
15
14
b1000 (
b1000 -
b1000 /
b1000 +
#1245000
10
04
b1001 (
b1001 -
b1001 /
b1001 +
#1250000
11
00
05
14
b1010 (
b1010 -
b1010 /
b1010 +
#1255000
10
04
b1011 (
b1011 -
b1011 /
b1011 +
#1260000
12
01
00
06
15
14
b1100 (
b1100 -
b1100 /
b1100 +
#1265000
10
04
b1101 (
b1101 -
b1101 /
b1101 +
#1270000
0#
11
00
05
14
b1110 (
b1110 -
b1110 /
b1110 +
#1275000
1%
10
04
0$
1&
b1111 (
b1111 -
b1111 /
b1111 +
b100000 )
#1280000
b10000 *
b10000 +
